

newmtl default_Mat
illum 2
Kd 0.800000 0.800000 0.800000

newmtl EU55trk3
Ns 50.781250
illum 2
Kd 0.700000 0.700000 0.700000
map_Kd EU55trk3.tif
bump EU55trk3.tif

newmtl EU55brk2
Ns 50.781250
illum 2
Kd 0.700000 0.700000 0.700000
map_Kd EU55brk2.tif
bump EU55brk2.tif

newmtl EU55bud1
Ns 50.781250
illum 2
Kd 0.700000 0.700000 0.700000
map_Kd EU55bud1.tif
map_d EU55bud1.tif

newmtl EU55twg2
Ns 50.781250
illum 2
Kd 0.700000 0.700000 0.700000
map_Kd EU55twg2.tif
bump EU55twg2.tif

newmtl EU55lef2
Ns 50.781250
illum 2
Kd 0.700000 0.700000 0.700000
map_Kd EU55lef2.tif
map_d EU55lef2.tif

newmtl EU55bud2
Ns 50.781250
illum 2
Kd 0.700000 0.700000 0.700000
map_Kd EU55bud2.tif
map_d EU55bud2.tif

newmtl EU55twg1
Ns 50.781250
illum 2
Kd 0.700000 0.700000 0.700000
map_Kd EU55twg1.tif
bump EU55twg1.tif

newmtl EU55brk3
Ns 50.781250
illum 2
Kd 0.700000 0.700000 0.700000
map_Kd EU55brk3.tif
bump EU55brk3.tif

newmtl EU55lef1
Ns 50.781250
illum 2
Kd 0.700000 0.700000 0.700000
map_Kd EU55lef1.tif
map_d EU55lef1.tif

newmtl EU55lef3
Ns 50.781250
illum 2
Kd 0.700000 0.700000 0.700000
map_Kd EU55lef3.tif
map_d EU55lef3.tif

newmtl EU55rts3
Ns 50.781250
illum 2
Kd 0.700000 0.700000 0.700000
map_Kd EU55rts3.tif
bump EU55rts3.tif

newmtl EU55brn2
Ns 50.781250
illum 2
Kd 0.700000 0.700000 0.700000
map_Kd EU55brn2.tif
map_d EU55brn2.tif
